{
  "questions": [
    {
      "type": "radio",
      "tag": "SleepQuality",
      "precondition": {
        "DailyCount": 0
      },
      "question": "Last night I slept:",
      "options": [
        {
          "option": "-3 (very badly)",
          "value": "-3"
        },
        {
          "option": "-2",
          "value": "-2"
        },
        {
          "option": "-1",
          "value": "-1"
        },
        {
          "option": "0",
          "value": "0"
        },
        {
          "option": "+1",
          "value": "1"
        },
        {
          "option": "+2",
          "value": "2"
        },
        {
          "option": "+3 (very well)",
          "value": "3"
        }
      ]
    },
    {
      "type": "instruction",
      "question": "When the beep went off, what was happening? What was I doing, thinking, feeling? The subsequent questions all concern this moment."
    },
    {
      "type": "radio",
      "tag": "MoodValence",
      "question": "When the beep went off...\n\nI felt:",
      "options": [
        {
          "option": "Very negative (-2)",
          "value": "-2",
          "image": "very_negative"
        },
        {
          "option": "Somewhat negative (-1)",
          "value": "-1",
          "image": "somewhat_negative"
        },
        {
          "option": "Neutral (0)",
          "value": "0",
          "image": "neutral"
        },
        {
          "option": "Somewhat positive (+1)",
          "value": "1",
          "image": "somewhat_positive"
        },
        {
          "option": "Very positive (+2)",
          "value": "2",
          "image": "very_positive"
        }
      ]
    },
    {
      "type": "radio",
      "tag": "MoodArousal",
      "question": "When the beep went off...\n\nI felt:",
      "options": [
        {
          "option": "Very deactivated (-2)",
          "value": "-2",
          "image": "very_deactivated"
        },
        {
          "option": "Somewhat deactivated (-1)",
          "value": "-1",
          "image": "somewhat_deactivated"
        },
        {
          "option": "Neither deactivated nor activated (0)",
          "value": "0",
          "image": "neither_deactivated_nor_activated"
        },
        {
          "option": "Somewhat activated (+1)",
          "value": "1",
          "image": "somewhat_activated"
        },
        {
          "option": "Very activated (+2)",
          "value": "2",
          "image": "very_activated"
        }
      ]
    },
    {
      "type": "radio",
      "tag": "MomentarySubjectiveHealth",
      "question": "When the beep went off...\n\nI felt physically:",
      "options": [
        {
          "option": "-3 (very bad)",
          "value": "-3"
        },
        {
          "option": "-2",
          "value": "-2"
        },
        {
          "option": "-1",
          "value": "-1"
        },
        {
          "option": "0",
          "value": "0"
        },
        {
          "option": "+1",
          "value": "1"
        },
        {
          "option": "+2",
          "value": "2"
        },
        {
          "option": "+3 (very good)",
          "value": "3"
        }
      ]
    },
    {
      "type": "radio",
      "tag": "SenseOfControl",
      "question": "When the beep went off...\n\nI felt in control.",
      "options": [
        {
          "option": "0 (not at all)",
          "value": "0"
        },
        {
          "option": "1",
          "value": "1"
        },
        {
          "option": "2",
          "value": "2"
        },
        {
          "option": "3",
          "value": "3"
        },
        {
          "option": "4",
          "value": "4"
        },
        {
          "option": "5",
          "value": "5"
        },
        {
          "option": "6 (very much)",
          "value": "6"
        }
      ]
    },
    {
      "type": "radio",
      "tag": "ExhaustionRecovery1",
      "question": "When the beep went off...\n\nI was filled with new energy.",
      "options": [
        {
          "option": "0 (not at all)",
          "value": "0"
        },
        {
          "option": "1",
          "value": "1"
        },
        {
          "option": "2",
          "value": "2"
        },
        {
          "option": "3",
          "value": "3"
        },
        {
          "option": "4",
          "value": "4"
        },
        {
          "option": "5",
          "value": "5"
        },
        {
          "option": "6 (very much)",
          "value": "6"
        }
      ]
    },
    {
      "type": "radio",
      "tag": "ExhaustionRecovery2",
      "question": "When the beep went off...\n\nI felt like I was at the end of my rope.",
      "options": [
        {
          "option": "0 (not at all)",
          "value": "0"
        },
        {
          "option": "1",
          "value": "1"
        },
        {
          "option": "2",
          "value": "2"
        },
        {
          "option": "3",
          "value": "3"
        },
        {
          "option": "4",
          "value": "4"
        },
        {
          "option": "5",
          "value": "5"
        },
        {
          "option": "6 (very much)",
          "value": "6"
        }
      ]
    },
    {
      "type": "radio",
      "tag": "SituationalContext1",
      "question": "When the beep went off...\n\nI was:",
      "options": [
        {
          "option": "At home",
          "value": "0"
        },
        {
          "option": "Work place/ Education",
          "value": "1"
        },
        {
          "option": "On the go/ Public life",
          "value": "2"
        },
        {
          "option": "Other",
          "value": "3"
        }
      ]
    },
    {
      "type": "checkbox",
      "tag": "SituationalContext2",
      "question": "When the beep went off...\n\nI was doing:",
      "options": [
        {
          "option": "Work, educational activity/ Voluntary work",
          "value": "0"
        },
        {
          "option": "Leisure activity",
          "value": "1"
        },
        {
          "option": "Sports",
          "value": "2"
        },
        {
          "option": "Housework (e.g., personal errands, chores)",
          "value": "3"
        },
        {
          "option": "Resting/ Sleeping",
          "value": "4"
        },
        {
          "option": "Travelling/ Commuting",
          "value": "5"
        },
        {
          "option": "Other",
          "value": "6"
        }
      ]
    },
    {
      "type": "multicheckbox",
      "question": "When the beep went off...\n\nI was with...",
      "options": [
        {
          "option": "Nobody",
          "value": "0"
        },
        {
          "option": "Partner/ Spouse",
          "value": "1"
        },
        {
          "option": "Family member(s)",
          "value": "2"
        },
        {
          "option": "Friend(s)",
          "value": "3"
        },
        {
          "option": "Acquaintance(s)",
          "value": "4"
        },
        {
          "option": "Co-worker(s)/ Fellow student(s)",
          "value": "5"
        },
        {
          "option": "Stranger(s)",
          "value": "6"
        }
      ],
      "optionfields": [
        {
          "tag": "SituationalContext3",
          "label": "Interacting"
        },
        {
          "tag": "SituationalContext4",
          "label": "Present"
        }
      ]
    },
    {
      "type": "radio",
      "tag": "SituationalContext5",
      "question": "When the beep went off...\n\nMy activity or situation was:",
      "options": [
        {
          "option": "-3 (very unpleasant)",
          "value": "-3"
        },
        {
          "option": "-2",
          "value": "-2"
        },
        {
          "option": "-1",
          "value": "-1"
        },
        {
          "option": "0",
          "value": "0"
        },
        {
          "option": "+1",
          "value": "1"
        },
        {
          "option": "+2",
          "value": "2"
        },
        {
          "option": "+3 (very pleasant)",
          "value": "3"
        }
      ]
    },
    {
      "type": "radio",
      "tag": "MomentaryGoalOrientation1",
      "question": "When the beep went off...\n\nI was trying to achieve something desired.",
      "options": [
        {
          "option": "0 (not at all)",
          "value": "0"
        },
        {
          "option": "1",
          "value": "1"
        },
        {
          "option": "2",
          "value": "2"
        },
        {
          "option": "3",
          "value": "3"
        },
        {
          "option": "4",
          "value": "4"
        },
        {
          "option": "5",
          "value": "5"
        },
        {
          "option": "6 (very much)",
          "value": "6"
        }
      ]
    },
    {
      "type": "radio",
      "tag": "MomentaryGoalOrientation2",
      "question": "When the beep went off...\n\nI was trying to avoid something undesired.",
      "options": [
        {
          "option": "0 (not at all)",
          "value": "0"
        },
        {
          "option": "1",
          "value": "1"
        },
        {
          "option": "2",
          "value": "2"
        },
        {
          "option": "3",
          "value": "3"
        },
        {
          "option": "4",
          "value": "4"
        },
        {
          "option": "5",
          "value": "5"
        },
        {
          "option": "6 (very much)",
          "value": "6"
        }
      ]
    },
    {
      "type": "radio",
      "tag": "MomentaryGoalOrientation3",
      "question": "When the beep went off...\n\nI was trying to maintain something I value.",
      "options": [
        {
          "option": "0 (not at all)",
          "value": "0"
        },
        {
          "option": "1",
          "value": "1"
        },
        {
          "option": "2",
          "value": "2"
        },
        {
          "option": "3",
          "value": "3"
        },
        {
          "option": "4",
          "value": "4"
        },
        {
          "option": "5",
          "value": "5"
        },
        {
          "option": "6 (very much)",
          "value": "6"
        }
      ]
    },
    {
      "type": "multiradio",
      "question": "When the beep went off...\n\nMy activity or situation was making it harder for me to reach my goal.",
      "anchortext": {
        "first": "not at all",
        "last": "very much"
      },
      "options": [
        {
          "option": "0",
          "value": "0"
        },
        {
          "option": "1",
          "value": "1"
        },
        {
          "option": "2",
          "value": "2"
        },
        {
          "option": "3",
          "value": "3"
        },
        {
          "option": "4",
          "value": "4"
        },
        {
          "option": "5",
          "value": "5"
        },
        {
          "option": "6",
          "value": "6"
        }
      ],
      "optionfields": [
        {
          "tag": "MomentaryGoalConflict1",
          "label": "<b>GOAL1</b>"
        },
        {
          "tag": "MomentaryGoalConflict2",
          "label": "<b>GOAL2</b>"
        },
        {
          "tag": "MomentaryGoalConflict3",
          "label": "<b>GOAL3</b>"
        }
      ]
    },
    {
      "type": "multiradio",
      "question": "When the beep went off...\n\nMy activity or situation was helping me reach my goal.",
      "anchortext": {
        "first": "not at all",
        "last": "very much"
      },
      "options": [
        {
          "option": "0",
          "value": "0"
        },
        {
          "option": "1",
          "value": "1"
        },
        {
          "option": "2",
          "value": "2"
        },
        {
          "option": "3",
          "value": "3"
        },
        {
          "option": "4",
          "value": "4"
        },
        {
          "option": "5",
          "value": "5"
        },
        {
          "option": "6",
          "value": "6"
        }
      ],
      "optionfields": [
        {
          "tag": "MomentaryGoalFacilitation1",
          "label": "<b>GOAL1</b>"
        },
        {
          "tag": "MomentaryGoalFacilitation2",
          "label": "<b>GOAL2</b>"
        },
        {
          "tag": "MomentaryGoalFacilitation3",
          "label": "<b>GOAL3</b>"
        }
      ]
    },
    {
      "type": "multiradio",
      "question": "When the beep went off...\n\nThis goal was important to me.",
      "anchortext": {
        "first": "not at all",
        "last": "very"
      },
      "options": [
        {
          "option": "0",
          "value": "0"
        },
        {
          "option": "1",
          "value": "1"
        },
        {
          "option": "2",
          "value": "2"
        },
        {
          "option": "3",
          "value": "3"
        },
        {
          "option": "4",
          "value": "4"
        },
        {
          "option": "5",
          "value": "5"
        },
        {
          "option": "6",
          "value": "6"
        }
      ],
      "optionfields": [
        {
          "tag": "GoalDimensionGoalRelevance1",
          "label": "<b>GOAL1</b>"
        },
        {
          "tag": "GoalDimensionGoalRelevance2",
          "label": "<b>GOAL2</b>"
        },
        {
          "tag": "GoalDimensionGoalRelevance3",
          "label": "<b>GOAL3</b>"
        }
      ]
    },
    {
      "type": "multiradio",
      "question": "When the beep went off...\n\nI was satisfied with my progress toward this goal.",
      "anchortext": {
        "first": "very dissatisfied",
        "last": "very satisfied"
      },
      "options": [
        {
          "option": "-3",
          "value": "-3"
        },
        {
          "option": "-2",
          "value": "-2"
        },
        {
          "option": "-1",
          "value": "-1"
        },
        {
          "option": "0",
          "value": "0"
        },
        {
          "option": "+1",
          "value": "1"
        },
        {
          "option": "+2",
          "value": "2"
        },
        {
          "option": "+3",
          "value": "3"
        }
      ],
      "optionfields": [
        {
          "tag": "GoalDimensionGoalDistance1",
          "label": "<b>GOAL1</b>"
        },
        {
          "tag": "GoalDimensionGoalDistance2",
          "label": "<b>GOAL2</b>"
        },
        {
          "tag": "GoalDimensionGoalDistance3",
          "label": "<b>GOAL3</b>"
        }
      ]
    },
    {
      "type": "multiradio",
      "question": "In terms of reaching the goal, since the last survey I have moved:",
      "anchortext": {
        "first": "much further away",
        "last": "much closer"
      },
      "options": [
        {
          "option": "-3",
          "value": "-3"
        },
        {
          "option": "-2",
          "value": "-2"
        },
        {
          "option": "-1",
          "value": "-1"
        },
        {
          "option": "0",
          "value": "0"
        },
        {
          "option": "+1",
          "value": "1"
        },
        {
          "option": "+2",
          "value": "2"
        },
        {
          "option": "+3",
          "value": "3"
        }
      ],
      "optionfields": [
        {
          "tag": "GoalDimensionGoalSuccess1",
          "label": "<b>GOAL1</b>"
        },
        {
          "tag": "GoalDimensionGoalSuccess2",
          "label": "<b>GOAL2</b>"
        },
        {
          "tag": "GoalDimensionGoalSuccess3",
          "label": "<b>GOAL3</b>"
        }
      ]
    },
    {
      "type": "multiradio",
      "question": "When the beep went off...\n\nI was focused on the path to this goal.",
      "anchortext": {
        "first": "not at all",
        "last": "very much"
      },
      "options": [
        {
          "option": "0",
          "value": "0"
        },
        {
          "option": "1",
          "value": "1"
        },
        {
          "option": "2",
          "value": "2"
        },
        {
          "option": "3",
          "value": "3"
        },
        {
          "option": "4",
          "value": "4"
        },
        {
          "option": "5",
          "value": "5"
        },
        {
          "option": "6",
          "value": "6"
        }
      ],
      "optionfields": [
        {
          "tag": "GoalFocusPath1",
          "label": "<b>GOAL1</b>"
        },
        {
          "tag": "GoalFocusPath2",
          "label": "<b>GOAL2</b>"
        },
        {
          "tag": "GoalFocusPath3",
          "label": "<b>GOAL3</b>"
        }
      ]
    },
    {
      "type": "multiradio",
      "question": "When the beep went off...\n\nI thought about what I want to achieve with this goal.",
      "anchortext": {
        "first": "not at all",
        "last": "very much"
      },
      "options": [
        {
          "option": "0",
          "value": "0"
        },
        {
          "option": "1",
          "value": "1"
        },
        {
          "option": "2",
          "value": "2"
        },
        {
          "option": "3",
          "value": "3"
        },
        {
          "option": "4",
          "value": "4"
        },
        {
          "option": "5",
          "value": "5"
        },
        {
          "option": "6",
          "value": "6"
        }
      ],
      "optionfields": [
        {
          "tag": "GoalFocusOutcome1",
          "label": "<b>GOAL1</b>"
        },
        {
          "tag": "GoalFocusOutcome2",
          "label": "<b>GOAL2</b>"
        },
        {
          "tag": "GoalFocusOutcome3",
          "label": "<b>GOAL3</b>"
        }
      ]
    },
    {
      "type": "checkbox",
      "tag": "EmotionRegulation1",
      "question": "When the beep went off...\n\nI was paying attention to:\n(Please select all that apply)",
      "options": [
        {
          "option": "Positive thoughts",
          "value": "0"
        },
        {
          "option": "Negative thoughts",
          "value": "1"
        },
        {
          "option": "Positive feelings in my body",
          "value": "2"
        },
        {
          "option": "Negative feelings in my body",
          "value": "3"
        },
        {
          "option": "Positive aspects of my environment",
          "value": "4"
        },
        {
          "option": "Negative aspects of my environment",
          "value": "5"
        },
        {
          "option": "None of the above",
          "value": "6"
        }
      ]
    },
    {
      "type": "checkbox",
      "tag": "EmotionRegulation2",
      "question": "Since the last survey, I shifted my attention to influence my feelings:",
      "options": [
        {
          "option": "By paying attention to something that would make me feel positive",
          "value": "0"
        },
        {
          "option": "By paying attention to something that would make me feel negative",
          "value": "1"
        },
        {
          "option": "By distracting myself from something that would make me feel negative",
          "value": "2"
        },
        {
          "option": "None of the above",
          "value": "3"
        }
      ]
    },
    {
      "type": "checkbox",
      "tag": "EmotionRegulation3",
      "question": "Since the last survey I tried to influence my feelings...",
      "options": [
        {
          "option": "By choosing to enter or avoid a situation or activity",
          "value": "0"
        },
        {
          "option": "By changing a situation or activity",
          "value": "1"
        },
        {
          "option": "By changing how I thought about something",
          "value": "2"
        },
        {
          "option": "By changing emotional expression",
          "value": "3"
        },
        {
          "option": "None of the above",
          "value": "4"
        }
      ]
    },
    {
      "type": "radio",
      "tag": "AffectiveChoice",
      "question": "If I could choose to engage with something RIGHT NOW, I would choose something that would make me feel...",
      "options": [
        {
          "option": "Positive and activated, like excited",
          "value": "0"
        },
        {
          "option": "Positive and deactivated, like content",
          "value": "1"
        },
        {
          "option": "Negative and activated, like upset",
          "value": "2"
        },
        {
          "option": "Negative and deactivated, like blue",
          "value": "3"
        },
        {
          "option": "Neutral",
          "value": "4"
        }
      ]
    },
    {
      "type": "game",
      "question": "The Attention Task",
      "tag": "DotMemoryTask"
    }
  ]
}